{
  "users": [
    {
      "email": "testes@email.com",
      "password": "$2a$10$zLNJP8OEGbUqfbFG9Uzg1uYoXn4WxAd1EhWO4xw51ifDINpGaV8YS",
      "username": "Testes",
      "id": 1,
      "firstName": "Teste",
      "lastName": "de Nome"
    }
  ],
  "clients": [
    {
      "name": "Marcos Rogerio Silva",
      "cpf": "55555555555",
      "email": "kenzo@mail.com",
      "tel": "(23) 4234-2342",
      "cel": "(23) 4234-23423",
      "postalCode": "94820-170",
      "street": "Rua Itararé",
      "number": "4",
      "city": "Alvorada",
      "state": "RS",
      "district": "Sumaré",
      "profInfo": "sasf",
      "clientSince": "2021-09-03T14:27:15.722Z",
      "lastContact": "2021-09-13T14:27:15.722Z",
      "observations": "sfsdfsf",
      "userId": 1,
      "id": 1
    },
    {
      "name": "Carlos Alberto",
      "cpf": "55555555555",
      "email": "kenzo@mail.com",
      "tel": "(23) 4234-2342",
      "cel": "(23) 4234-23423",
      "postalCode": "94820-170",
      "street": "Rua Itararé",
      "number": "4",
      "city": "Alvorada",
      "state": "RS",
      "district": "Sumaré",
      "profInfo": "sasf",
      "clientSince": "2021-09-13T14:27:15.722Z",
      "lastContact": "2021-09-03T14:27:15.722Z",
      "observations": "sfsdfsf",
      "userId": 1,
      "id": 2
    },
    {
      "name": "Andrei Guerreiro",
      "cpf": "55555555555",
      "email": "kenzo@mail.com",
      "tel": "(23) 4234-2342",
      "cel": "(23) 4234-23423",
      "postalCode": "94820-170",
      "street": "Rua Itararé",
      "number": "4",
      "city": "Alvorada",
      "state": "RS",
      "district": "Sumaré",
      "profInfo": "sasf",
      "clientSince": "2021-09-07T14:27:15.722Z",
      "lastContact": "2021-09-13T14:27:15.722Z",
      "observations": "sfsdfsf",
      "userId": 1,
      "id": 3
    },
    {
      "name": "Claudia Clemente",
      "cpf": "55555555555",
      "email": "kenzo@mail.com",
      "tel": "(23) 4234-2342",
      "cel": "(23) 4234-23423",
      "postalCode": "94820-170",
      "street": "Rua Itararé",
      "number": "4",
      "city": "Alvorada",
      "state": "RS",
      "district": "Sumaré",
      "profInfo": "sasf",
      "clientSince": "2021-05-13T14:27:15.722Z",
      "lastContact": "2021-09-13T14:27:15.722Z",
      "observations": "sfsdfsf",
      "userId": 1,
      "id": 4
    },
    {
      "name": "Cristiano Fernandes",
      "cpf": "55555555555",
      "email": "kenzo@mail.com",
      "tel": "(23) 4234-2342",
      "cel": "(23) 4234-23423",
      "postalCode": "94820-170",
      "street": "Rua Itararé",
      "number": "4",
      "city": "Alvorada",
      "state": "RS",
      "district": "Sumaré",
      "profInfo": "sasf",
      "clientSince": "2021-05-13T14:27:15.722Z",
      "lastContact": "2020-10-13T14:27:15.722Z",
      "observations": "sfsdfsf",
      "userId": 1,
      "id": 5
    },
    {
      "name": "Roberto Bosco dos Santos",
      "cpf": "55555555555",
      "email": "kenzo@mail.com",
      "tel": "(23) 4234-2342",
      "cel": "(23) 4234-23423",
      "postalCode": "94820-170",
      "street": "Rua Itararé",
      "number": "4",
      "city": "Alvorada",
      "state": "RS",
      "district": "Sumaré",
      "profInfo": "sasf",
      "clientSince": "2021-04-13T14:27:15.722Z",
      "lastContact": "2021-09-13T14:27:15.722Z",
      "observations": "sfsdfsf",
      "userId": 1,
      "id": 6
    },
    {
      "name": "Andreia Regina",
      "cpf": "55555555555",
      "email": "kenzo@mail.com",
      "tel": "(23) 4234-2342",
      "cel": "(23) 4234-23423",
      "postalCode": "94820-170",
      "street": "Rua Itararé",
      "number": "4",
      "city": "Alvorada",
      "state": "RS",
      "district": "Sumaré",
      "profInfo": "sasf",
      "clientSince": "2021-01-13T14:27:15.722Z",
      "lastContact": "2021-09-13T14:27:15.722Z",
      "observations": "sfsdfsf",
      "userId": 1,
      "id": 7
    },
    {
      "name": "Fabiana Macedo",
      "cpf": "55555555555",
      "email": "kenzo@mail.com",
      "tel": "(23) 4234-2342",
      "cel": "(23) 4234-23423",
      "postalCode": "94820-170",
      "street": "Rua Itararé",
      "number": "4",
      "city": "Alvorada",
      "state": "RS",
      "district": "Sumaré",
      "profInfo": "sasf",
      "clientSince": "2021-09-13T14:27:15.722Z",
      "lastContact": "2021-02-13T14:27:15.722Z",
      "observations": "sfsdfsf",
      "userId": 1,
      "id": 8
    },
    {
      "name": "Juliana Ferreira",
      "cpf": "55555555555",
      "email": "kenzo@mail.com",
      "tel": "(23) 4234-2342",
      "cel": "(23) 4234-23423",
      "postalCode": "94820-170",
      "street": "Rua Itararé",
      "number": "4",
      "city": "Alvorada",
      "state": "RS",
      "district": "Sumaré",
      "profInfo": "sasf",
      "clientSince": "2021-09-13T14:27:15.722Z",
      "lastContact": "2021-07-13T14:27:15.722Z",
      "observations": "sfsdfsf",
      "userId": 1,
      "id": 9
    },
    {
      "name": "Cristóvan Colombo",
      "cpf": "55555555555",
      "email": "kenzo@mail.com",
      "tel": "(23) 4234-2342",
      "cel": "(23) 4234-23423",
      "postalCode": "94820-170",
      "street": "Rua Itararé",
      "number": "4",
      "city": "Alvorada",
      "state": "RS",
      "district": "Sumaré",
      "profInfo": "sasf",
      "clientSince": "2021-07-13T14:27:15.722Z",
      "lastContact": "2021-08-13T14:27:15.722Z",
      "observations": "sfsdfsf",
      "userId": 1,
      "id": 10
    },
    {
      "name": "Alessandra Silva",
      "cpf": "55555555555",
      "email": "kenzo@mail.com",
      "tel": "(23) 4234-2342",
      "cel": "(23) 4234-23423",
      "postalCode": "94820-170",
      "street": "Rua Itararé",
      "number": "4",
      "city": "Alvorada",
      "state": "RS",
      "district": "Sumaré",
      "profInfo": "sasf",
      "clientSince": "2021-01-13T14:27:15.722Z",
      "lastContact": "2021-03-13T14:27:15.722Z",
      "observations": "sfsdfsf",
      "userId": 1,
      "id": 11
    },
    {
      "name": "Rafael Antunes",
      "cpf": "55555555555",
      "email": "kenzo@mail.com",
      "tel": "(23) 4234-2342",
      "cel": "(23) 4234-23423",
      "postalCode": "94820-170",
      "street": "Rua Itararé",
      "number": "4",
      "city": "Alvorada",
      "state": "RS",
      "district": "Sumaré",
      "profInfo": "sasf",
      "clientSince": "2021-04-13T14:27:15.722Z",
      "lastContact": "2021-09-13T14:27:15.722Z",
      "observations": "sfsdfsf",
      "userId": 1,
      "id": 12
    },
    {
      "name": "Andriano Seila",
      "cpf": "55555555555",
      "email": "kenzo@mail.com",
      "tel": "(23) 4234-2342",
      "cel": "(23) 4234-23423",
      "postalCode": "94820-170",
      "street": "Rua Itararé",
      "number": "4",
      "city": "Alvorada",
      "state": "RS",
      "district": "Sumaré",
      "profInfo": "sasf",
      "clientSince": "2021-09-13T14:27:15.722Z",
      "lastContact": "2021-01-13T14:27:15.722Z",
      "observations": "sfsdfsf",
      "userId": 1,
      "id": 13
    },
    {
      "name": "Clovis Roberto",
      "cpf": "55555555555",
      "email": "kenzo@mail.com",
      "tel": "(23) 4234-2342",
      "cel": "(23) 4234-23423",
      "postalCode": "94820-170",
      "street": "Rua Itararé",
      "number": "4",
      "city": "Alvorada",
      "state": "RS",
      "district": "Sumaré",
      "profInfo": "sasf",
      "clientSince": "2021-07-13T14:27:15.722Z",
      "lastContact": "2021-07-13T14:27:15.722Z",
      "observations": "sfsdfsf",
      "userId": 1,
      "id": 14
    },
    {
      "name": "Fabio Farias",
      "cpf": "55555555555",
      "email": "kenzo@mail.com",
      "tel": "(23) 4234-2342",
      "cel": "(23) 4234-23423",
      "postalCode": "94820-170",
      "street": "Rua Itararé",
      "number": "4",
      "city": "Alvorada",
      "state": "RS",
      "district": "Sumaré",
      "profInfo": "sasf",
      "clientSince": "2021-05-13T14:27:15.722Z",
      "lastContact": "2021-05-13T14:27:15.722Z",
      "observations": "sfsdfsf",
      "userId": 1,
      "id": 15
    },
    {
      "name": "Ronaldo Romario",
      "cpf": "55555555555",
      "email": "kenzo@mail.com",
      "tel": "(23) 4234-2342",
      "cel": "(23) 4234-23423",
      "postalCode": "94820-170",
      "street": "Rua Itararé",
      "number": "4",
      "city": "Alvorada",
      "state": "RS",
      "district": "Sumaré",
      "profInfo": "sasf",
      "clientSince": "2021-09-13T14:27:15.722Z",
      "lastContact": "2021-06-13T14:27:15.722Z",
      "observations": "sfsdfsf",
      "userId": 1,
      "id": 16
    },
    {
      "name": "Carlos Teixeira",
      "cpf": "55555555555",
      "email": "kenzo@mail.com",
      "tel": "(23) 4234-2342",
      "cel": "(23) 4234-23423",
      "postalCode": "94820-170",
      "street": "Rua Itararé",
      "number": "4",
      "city": "Alvorada",
      "state": "RS",
      "district": "Sumaré",
      "profInfo": "sasf",
      "clientSince": "2020-07-13T14:27:15.722Z",
      "lastContact": "2021-09-13T14:27:15.722Z",
      "observations": "sfsdfsf",
      "userId": 1,
      "id": 17
    }
  ],
  "services": [
    {
      "title": "Web Page",
      "description": "The first service",
      "language": "Javascript",
      "budget": "1000",
      "finalValue": "2000",
      "userId": 1,
      "id": 1
    },
    {
      "title": "App",
      "description": "The first service",
      "language": "Java",
      "budget": "2000",
      "finalValue": "2000",
      "userId": 1,
      "id": 2
    },
    {
      "title": "APP",
      "description": "The first service",
      "language": "Java",
      "budget": "3000",
      "finalValue": "3000",
      "userId": 1,
      "id": 3
    },
    {
      "title": "Game",
      "description": "The first service",
      "language": "C++",
      "budget": "4000",
      "finalValue": "5000",
      "userId": 1,
      "id": 4
    },
    {
      "title": "Web Page",
      "description": "The first service",
      "language": "PHP",
      "budget": "5000",
      "finalValue": "5000",
      "userId": 1,
      "id": 5
    },
    {
      "title": "APP",
      "description": "The first service",
      "language": "Phyton",
      "budget": "2000",
      "finalValue": "2000",
      "userId": 1,
      "id": 6
    },
    {
      "title": "APP",
      "description": "The first service",
      "language": "C#",
      "budget": "4000",
      "finalValue": "5000",
      "userId": 1,
      "id": 7
    },
    {
      "title": "Web Page",
      "description": "The first service",
      "language": "PHP",
      "budget": "12000",
      "finalValue": "12000",
      "userId": 1,
      "id": 8
    }
  ],
  "contracts": [
    {
      "service": {
        "title": "Web Page",
        "description": "The first service",
        "language": "PHP",
        "budget": "3000",
        "finalValue": "3000",
        "userId": 1,
        "id": 1
      },
      "status": "Concluído",
      "userId": 1,
      "startDate": "2021-01-13T14:27:15.722Z",
      "finishDate": "2021-01-13T14:27:15.722Z",
      "client": {
        "name": "Cliente 1",
        "cpf": "55555555555",
        "email": "kenzo@mail.com",
        "tel": "(23)4234-2342",
        "cel": "(23)4234-23423",
        "postalCode": "94820-170",
        "street": "Rua Itararé",
        "number": "4",
        "city": "Alvorada",
        "state": "RS",
        "district": "Sumaré",
        "profInfo": "sasf",
        "clientSince": "2021-09-03T14:27:15.722Z",
        "lastContact": "2021-09-13T14:27:15.722Z",
        "observations": "sfsdfsf",
        "userId": 1,
        "id": 1
      },
      "id": 1
    },
    {
      "service": {
        "title": "Game",
        "description": "The first service",
        "language": "C++",
        "budget": "7000",
        "finalValue": "7000",
        "userId": 1,
        "id": 2
      },
      "status": "Em andamento",
      "userId": 1,
      "startDate": "2021-02-13T14:27:15.722Z",
      "finishDate": "2021-02-13T14:27:15.722Z",
      "client": {
        "name": "Roberto Feliciano",
        "cpf": "55555555555",
        "email": "kenzo@mail.com",
        "tel": "(23) 4234-2342",
        "cel": "(23) 4234-23423",
        "postalCode": "94820-170",
        "street": "Rua Itararé",
        "number": "4",
        "city": "Alvorada",
        "state": "RS",
        "district": "Sumaré",
        "profInfo": "sasf",
        "clientSince": "2021-02-13T14:27:15.722Z",
        "lastContact": "2021-09-03T14:27:15.722Z",
        "observations": "sfsdfsf",
        "userId": 1,
        "id": 2
      },
      "id": 2
    },
    {
      "service": {
        "title": "APP",
        "description": "The first service",
        "language": "Javascript",
        "budget": "8000",
        "finalValue": "8000",
        "status": "Terminado",
        "userId": 1,
        "id": 3
      },
      "status": "Concluído",
      "userId": 1,
      "startDate": "2021-03-13T14:27:15.722Z",
      "finishDate": "2021-04-13T14:27:15.722Z",
      "client": {
        "name": "Viviane Araújo",
        "cpf": "55555555555",
        "email": "kenzo@mail.com",
        "tel": "(23) 4234-2342",
        "cel": "(23) 4234-23423",
        "postalCode": "94820-170",
        "street": "Rua Itararé",
        "number": "4",
        "city": "Alvorada",
        "state": "RS",
        "district": "Sumaré",
        "profInfo": "sasf",
        "clientSince": "2021-03-03T14:27:15.722Z",
        "lastContact": "2021-09-13T14:27:15.722Z",
        "observations": "sfsdfsf",
        "userId": 1,
        "id": 1
      },
      "id": 3
    },
    {
      "service": {
        "title": "APP",
        "description": "The first service",
        "language": "Javascript",
        "budget": "8000",
        "finalValue": "8000",
        "status": "Terminado",
        "userId": 1,
        "id": 4
      },
      "status": "Concluído",
      "userId": 1,
      "startDate": "2021-05-13T14:27:15.722Z",
      "finishDate": "2021-06-13T14:27:15.722Z",
      "client": {
        "name": "Roberto Siqueira",
        "cpf": "55555555555",
        "email": "kenzo@mail.com",
        "tel": "(23) 4234-2342",
        "cel": "(23) 4234-23423",
        "postalCode": "94820-170",
        "street": "Rua Itararé",
        "number": "4",
        "city": "Alvorada",
        "state": "RS",
        "district": "Sumaré",
        "profInfo": "sasf",
        "clientSince": "2021-03-03T14:27:15.722Z",
        "lastContact": "2021-09-13T14:27:15.722Z",
        "observations": "sfsdfsf",
        "userId": 1,
        "id": 1
      },
      "id": 4
    },
    {
      "service": {
        "title": "APP",
        "description": "The first service",
        "language": "Javascript",
        "budget": "4200",
        "finalValue": "4200",
        "status": "Terminado",
        "userId": 1,
        "id": 5
      },
      "status": "Concluído",
      "userId": 1,
      "startDate": "2021-06-13T14:27:15.722Z",
      "finishDate": "2021-07-13T14:27:15.722Z",
      "client": {
        "name": "Claudio Vaz",
        "cpf": "55555555555",
        "email": "kenzo@mail.com",
        "tel": "(23) 4234-2342",
        "cel": "(23) 4234-23423",
        "postalCode": "94820-170",
        "street": "Rua Itararé",
        "number": "4",
        "city": "Alvorada",
        "state": "RS",
        "district": "Sumaré",
        "profInfo": "sasf",
        "clientSince": "2021-03-03T14:27:15.722Z",
        "lastContact": "2021-09-13T14:27:15.722Z",
        "observations": "sfsdfsf",
        "userId": 1,
        "id": 1
      },
      "id": 5
    },

    {
      "service": {
        "title": "Game",
        "description": "The first service",
        "language": "Java",
        "budget": "15200",
        "finalValue": "15200",
        "status": "Terminado",
        "userId": 1,
        "id": 6
      },
      "status": "Concluído",
      "userId": 1,
      "startDate": "2021-06-13T14:27:15.722Z",
      "finishDate": "2021-07-13T14:27:15.722Z",
      "client": {
        "name": "Andreia Silva",
        "cpf": "55555555555",
        "email": "kenzo@mail.com",
        "tel": "(23) 4234-2342",
        "cel": "(23) 4234-23423",
        "postalCode": "94820-170",
        "street": "Rua Itararé",
        "number": "4",
        "city": "Alvorada",
        "state": "RS",
        "district": "Sumaré",
        "profInfo": "sasf",
        "clientSince": "2021-03-03T14:27:15.722Z",
        "lastContact": "2021-09-13T14:27:15.722Z",
        "observations": "sfsdfsf",
        "userId": 1,
        "id": 1
      },
      "id": 6
    },
    {
      "service": {
        "title": "Web Page",
        "description": "The first service",
        "language": "C#",
        "budget": "17200",
        "finalValue": "17200",
        "status": "Terminado",
        "userId": 1,
        "id": 7
      },
      "status": "Concluído",
      "userId": 1,
      "startDate": "2021-07-13T14:27:15.722Z",
      "finishDate": "2021-08-13T14:27:15.722Z",
      "client": {
        "name": "Clovis Leite",
        "cpf": "55555555555",
        "email": "kenzo@mail.com",
        "tel": "(23) 4234-2342",
        "cel": "(23) 4234-23423",
        "postalCode": "94820-170",
        "street": "Rua Itararé",
        "number": "4",
        "city": "Alvorada",
        "state": "RS",
        "district": "Sumaré",
        "profInfo": "sasf",
        "clientSince": "2021-03-03T14:27:15.722Z",
        "lastContact": "2021-09-13T14:27:15.722Z",
        "observations": "sfsdfsf",
        "userId": 1,
        "id": 8
      },
      "id": 7
    },
    {
      "service": {
        "title": "Web Page",
        "description": "The first service",
        "language": "PHP",
        "budget": "15200",
        "finalValue": "15200",
        "status": "Terminado",
        "userId": 1,
        "id": 7
      },
      "status": "Concluído",
      "userId": 1,
      "startDate": "2021-09-13T14:27:15.722Z",
      "finishDate": "2021-10-13T14:27:15.722Z",
      "client": {
        "name": "Kenzera Silva",
        "cpf": "55555555555",
        "email": "kenzo@mail.com",
        "tel": "(23) 4234-2342",
        "cel": "(23) 4234-23423",
        "postalCode": "94820-170",
        "street": "Rua Itararé",
        "number": "4",
        "city": "Alvorada",
        "state": "RS",
        "district": "Sumaré",
        "profInfo": "sasf",
        "clientSince": "2021-03-03T14:27:15.722Z",
        "lastContact": "2021-09-13T14:27:15.722Z",
        "observations": "sfsdfsf",
        "userId": 1,
        "id": 8
      },
      "id": 8
    }
  ]
}
